<svg width="102" height="48" viewBox="0 0 102 48" fill="none" xmlns="http://www.w3.org/2000/svg">
<path d="M28.308 27.9767L18.0206 38.2325L15.4487 35.6686L25.7362 25.4128L23.9691 23.6511L13.6816 33.9069L10.9348 31.1686L21.2223 20.9128L19.4552 19.1511L11.0573 27.5232L11.0748 10.8139V10.7442L8.57289 8.31976L0 0V23.8256L18.0206 41.7383L30.0751 29.7209L28.308 27.9767ZM8.57289 28.8139L2.50188 22.7616V5.86045L8.59038 11.7732L8.57289 28.8139Z" fill="#A4CD39"/>
<path d="M40.6779 11.8955H46.2415V12.8722H41.8326V15.6804H45.5591V16.6571H41.8326V19.9013H46.3814V20.8781H40.6779V11.8955Z" fill="white"/>
<path d="M40.6779 11.8955H46.2415V12.8722H41.8326V15.6804H45.5591V16.6571H41.8326V19.9013H46.3814V20.8781H40.6779V11.8955Z" fill="url(#paint0_linear)"/>
<path d="M48.7607 20.913L48.9882 19.8665C49.0757 19.9014 49.1631 19.9188 49.2856 19.9188C49.758 19.9188 50.0554 19.5002 50.1779 18.5235C50.3528 17.0932 50.5278 15.663 50.6853 14.2153H55.1642V20.8607H54.0269V15.1397H51.5775C51.4201 16.3607 51.2976 17.599 51.1402 18.82C50.9477 20.3025 50.3529 21.0351 49.3731 21.0351C49.1282 21.0176 48.9532 20.9828 48.7607 20.913Z" fill="white"/>
<path d="M48.7607 20.913L48.9882 19.8665C49.0757 19.9014 49.1631 19.9188 49.2856 19.9188C49.758 19.9188 50.0554 19.5002 50.1779 18.5235C50.3528 17.0932 50.5278 15.663 50.6853 14.2153H55.1642V20.8607H54.0269V15.1397H51.5775C51.4201 16.3607 51.2976 17.599 51.1402 18.82C50.9477 20.3025 50.3529 21.0351 49.3731 21.0351C49.1282 21.0176 48.9532 20.9828 48.7607 20.913Z" fill="url(#paint1_linear)"/>
<path d="M58.5407 17.529C58.5407 15.3662 60.1503 14.0581 61.9349 14.0581C63.8594 14.0581 64.9791 15.2965 64.9791 17.1802C64.9791 17.4418 64.9441 17.686 64.9266 17.8604H59.293V16.9883H64.2443L63.9644 17.3023C63.9644 15.7325 63.1771 14.9476 61.9699 14.9476C60.7452 14.9476 59.6604 15.8721 59.6604 17.529C59.6604 19.2558 60.7802 20.1279 62.2673 20.1279C63.0546 20.1279 63.6845 19.8837 64.2968 19.5L64.6992 20.2325C64.0344 20.6686 63.1946 21.0174 62.1273 21.0174C60.1328 21.0174 58.5407 19.7442 58.5407 17.529Z" fill="white"/>
<path d="M58.5407 17.529C58.5407 15.3662 60.1503 14.0581 61.9349 14.0581C63.8594 14.0581 64.9791 15.2965 64.9791 17.1802C64.9791 17.4418 64.9441 17.686 64.9266 17.8604H59.293V16.9883H64.2443L63.9644 17.3023C63.9644 15.7325 63.1771 14.9476 61.9699 14.9476C60.7452 14.9476 59.6604 15.8721 59.6604 17.529C59.6604 19.2558 60.7802 20.1279 62.2673 20.1279C63.0546 20.1279 63.6845 19.8837 64.2968 19.5L64.6992 20.2325C64.0344 20.6686 63.1946 21.0174 62.1273 21.0174C60.1328 21.0174 58.5407 19.7442 58.5407 17.529Z" fill="url(#paint2_linear)"/>
<path d="M68.3381 14.2151H69.4753V16.9535H71.7847L74.5141 20.8604H73.2719L71.2424 17.8779H69.4928V20.8604H68.3556V14.2151H68.3381ZM70.9799 17.4244L72.0472 15.4709C72.642 14.3372 73.0794 14.0581 73.8142 14.0581C73.9717 14.0581 74.1466 14.093 74.2516 14.1453L74.0592 15.2093C73.9717 15.1744 73.9017 15.1569 73.7792 15.1569C73.4293 15.1569 73.2369 15.3139 72.817 16.0639L71.9597 17.6162L70.9799 17.4244Z" fill="white"/>
<path d="M68.3381 14.2151H69.4753V16.9535H71.7847L74.5141 20.8604H73.2719L71.2424 17.8779H69.4928V20.8604H68.3556V14.2151H68.3381ZM70.9799 17.4244L72.0472 15.4709C72.642 14.3372 73.0794 14.0581 73.8142 14.0581C73.9717 14.0581 74.1466 14.093 74.2516 14.1453L74.0592 15.2093C73.9717 15.1744 73.9017 15.1569 73.7792 15.1569C73.4293 15.1569 73.2369 15.3139 72.817 16.0639L71.9597 17.6162L70.9799 17.4244Z" fill="url(#paint3_linear)"/>
<path d="M79.6403 15.1394H77.0159V14.2324H83.4194V15.1394H80.795V20.8603H79.6403V15.1394Z" fill="white"/>
<path d="M79.6403 15.1394H77.0159V14.2324H83.4194V15.1394H80.795V20.8603H79.6403V15.1394Z" fill="url(#paint4_linear)"/>
<path d="M86.6214 14.2151H87.5486L87.6361 15.0697H87.6711C88.2834 14.4767 89.1582 14.0581 89.9805 14.0581C91.7826 14.0581 92.7274 15.3837 92.7274 17.4418C92.7274 19.6918 91.3102 21.0174 89.7006 21.0174C89.0883 21.0174 88.3184 20.7035 87.7061 20.1628H87.6711L87.7236 21.4186V23.6511H86.5864V14.2151H86.6214ZM91.5726 17.4418C91.5726 15.9767 91.0303 15.0174 89.7006 15.0174C89.1058 15.0174 88.4234 15.3139 87.7586 15.9942V19.3081C88.3709 19.8662 89.0708 20.0755 89.5256 20.0755C90.6979 20.0755 91.5726 19.0814 91.5726 17.4418Z" fill="white"/>
<path d="M86.6214 14.2151H87.5486L87.6361 15.0697H87.6711C88.2834 14.4767 89.1582 14.0581 89.9805 14.0581C91.7826 14.0581 92.7274 15.3837 92.7274 17.4418C92.7274 19.6918 91.3102 21.0174 89.7006 21.0174C89.0883 21.0174 88.3184 20.7035 87.7061 20.1628H87.6711L87.7236 21.4186V23.6511H86.5864V14.2151H86.6214ZM91.5726 17.4418C91.5726 15.9767 91.0303 15.0174 89.7006 15.0174C89.1058 15.0174 88.4234 15.3139 87.7586 15.9942V19.3081C88.3709 19.8662 89.0708 20.0755 89.5256 20.0755C90.6979 20.0755 91.5726 19.0814 91.5726 17.4418Z" fill="url(#paint5_linear)"/>
<path d="M95.4219 17.5641C95.4219 15.3315 96.9615 14.0757 98.7111 14.0757C100.461 14.0757 102 15.3489 102 17.5641C102 19.7617 100.461 21.035 98.7111 21.035C96.9615 21.035 95.4219 19.7617 95.4219 17.5641ZM100.828 17.5641C100.828 16.0292 99.9708 15.0175 98.7111 15.0175C97.4339 15.0175 96.5941 16.0466 96.5941 17.5641C96.5941 19.0815 97.4514 20.0931 98.7111 20.0931C99.9708 20.0757 100.828 19.064 100.828 17.5641Z" fill="white"/>
<path d="M95.4219 17.5641C95.4219 15.3315 96.9615 14.0757 98.7111 14.0757C100.461 14.0757 102 15.3489 102 17.5641C102 19.7617 100.461 21.035 98.7111 21.035C96.9615 21.035 95.4219 19.7617 95.4219 17.5641ZM100.828 17.5641C100.828 16.0292 99.9708 15.0175 98.7111 15.0175C97.4339 15.0175 96.5941 16.0466 96.5941 17.5641C96.5941 19.0815 97.4514 20.0931 98.7111 20.0931C99.9708 20.0757 100.828 19.064 100.828 17.5641Z" fill="url(#paint6_linear)"/>
<path d="M42.6548 28.7091H40.0304V27.7847H46.4338V28.6916H43.8095V34.4126H42.6548V28.7091Z" fill="white"/>
<path d="M42.6548 28.7091H40.0304V27.7847H46.4338V28.6916H43.8095V34.4126H42.6548V28.7091Z" fill="url(#paint7_linear)"/>
<path d="M49.2856 31.0989C49.2856 28.9361 50.8952 27.6279 52.6797 27.6279C54.6043 27.6279 55.724 28.8663 55.724 30.75C55.724 31.0117 55.689 31.2558 55.6715 31.4303H50.0379V30.5582H54.9892L54.7093 30.8721C54.7093 29.3024 53.9219 28.5175 52.7147 28.5175C51.49 28.5175 50.4053 29.4419 50.4053 31.0989C50.4053 32.8256 51.525 33.6977 53.0122 33.6977C53.7995 33.6977 54.4293 33.4535 55.0417 33.0698L55.4441 33.8023C54.7792 34.2384 53.9394 34.5872 52.8722 34.5872C50.8777 34.5872 49.2856 33.314 49.2856 31.0989Z" fill="white"/>
<path d="M49.2856 31.0989C49.2856 28.9361 50.8952 27.6279 52.6797 27.6279C54.6043 27.6279 55.724 28.8663 55.724 30.75C55.724 31.0117 55.689 31.2558 55.6715 31.4303H50.0379V30.5582H54.9892L54.7093 30.8721C54.7093 29.3024 53.9219 28.5175 52.7147 28.5175C51.49 28.5175 50.4053 29.4419 50.4053 31.0989C50.4053 32.8256 51.525 33.6977 53.0122 33.6977C53.7995 33.6977 54.4293 33.4535 55.0417 33.0698L55.4441 33.8023C54.7792 34.2384 53.9394 34.5872 52.8722 34.5872C50.8777 34.5872 49.2856 33.314 49.2856 31.0989Z" fill="url(#paint8_linear)"/>
<path d="M61.0075 30.994L58.6806 27.7847H59.9228L60.9725 29.2323C61.2 29.5986 61.4799 29.9998 61.7598 30.3486H61.8123C62.0573 29.9998 62.3372 29.5812 62.5646 29.2149L63.5444 27.7847H64.7516L62.3897 31.0812L64.9441 34.43H63.6844L62.5296 32.8951C62.2497 32.5288 61.9348 32.0754 61.6549 31.6916H61.6024C61.3224 32.0928 61.06 32.4765 60.7801 32.9126L59.6778 34.43H58.4706L61.0075 30.994Z" fill="white"/>
<path d="M61.0075 30.994L58.6806 27.7847H59.9228L60.9725 29.2323C61.2 29.5986 61.4799 29.9998 61.7598 30.3486H61.8123C62.0573 29.9998 62.3372 29.5812 62.5646 29.2149L63.5444 27.7847H64.7516L62.3897 31.0812L64.9441 34.43H63.6844L62.5296 32.8951C62.2497 32.5288 61.9348 32.0754 61.6549 31.6916H61.6024C61.3224 32.0928 61.06 32.4765 60.7801 32.9126L59.6778 34.43H58.4706L61.0075 30.994Z" fill="url(#paint9_linear)"/>
<path d="M68.1279 27.7847H69.2652V30.4707H72.6593V27.7847H73.7965V34.43H72.6593V31.4823H69.2652V34.43H68.1279V27.7847Z" fill="white"/>
<path d="M68.1279 27.7847H69.2652V30.4707H72.6593V27.7847H73.7965V34.43H72.6593V31.4823H69.2652V34.43H68.1279V27.7847Z" fill="url(#paint10_linear)"/>
<path d="M80.4105 28.7095H77.3313V27.785H81.5478V34.4304H80.4105V28.7095ZM79.9557 25.5176C79.9557 24.9943 80.3406 24.6455 80.8654 24.6455C81.3903 24.6455 81.7752 24.9943 81.7752 25.5176C81.7752 26.0583 81.3903 26.3897 80.8654 26.3897C80.3406 26.3897 79.9557 26.0583 79.9557 25.5176Z" fill="white"/>
<path d="M80.4105 28.7095H77.3313V27.785H81.5478V34.4304H80.4105V28.7095ZM79.9557 25.5176C79.9557 24.9943 80.3406 24.6455 80.8654 24.6455C81.3903 24.6455 81.7752 24.9943 81.7752 25.5176C81.7752 26.0583 81.3903 26.3897 80.8654 26.3897C80.3406 26.3897 79.9557 26.0583 79.9557 25.5176Z" fill="url(#paint11_linear)"/>
<path d="M86.8483 27.7849H87.9855V30.5233H90.295L93.0243 34.4302H91.7646L89.7351 31.4477H87.9855V34.4302H86.8483V27.7849ZM89.4727 30.9942L90.5399 29.0407C91.1348 27.907 91.5722 27.6279 92.307 27.6279C92.4644 27.6279 92.6394 27.6628 92.7444 27.7151L92.5519 28.7791C92.4645 28.7442 92.3945 28.7268 92.272 28.7268C91.9221 28.7268 91.7296 28.8837 91.3097 29.6337L90.4524 31.1861L89.4727 30.9942Z" fill="white"/>
<path d="M86.8483 27.7849H87.9855V30.5233H90.295L93.0243 34.4302H91.7646L89.7351 31.4477H87.9855V34.4302H86.8483V27.7849ZM89.4727 30.9942L90.5399 29.0407C91.1348 27.907 91.5722 27.6279 92.307 27.6279C92.4644 27.6279 92.6394 27.6628 92.7444 27.7151L92.5519 28.7791C92.4645 28.7442 92.3945 28.7268 92.272 28.7268C91.9221 28.7268 91.7296 28.8837 91.3097 29.6337L90.4524 31.1861L89.4727 30.9942Z" fill="url(#paint12_linear)"/>
<path d="M95.6838 32.7032C95.6838 31.2207 97.0835 30.4881 100.513 30.2091C100.478 29.3021 100.04 28.5346 98.7456 28.5346C97.8883 28.5346 97.031 28.9358 96.4187 29.3195L95.9638 28.5521C96.6461 28.116 97.7658 27.5928 98.938 27.5928C100.758 27.5928 101.65 28.6742 101.65 30.3311V34.3951H100.705L100.618 33.4881H100.583C99.8478 34.0637 98.903 34.5521 97.9583 34.5521C96.7161 34.5869 95.6838 33.8893 95.6838 32.7032ZM100.53 32.6858V30.959C97.6784 31.1858 96.8211 31.7439 96.8211 32.616C96.8211 33.366 97.5034 33.6625 98.2732 33.6625C99.0255 33.68 99.7603 33.3137 100.53 32.6858Z" fill="white"/>
<path d="M95.6838 32.7032C95.6838 31.2207 97.0835 30.4881 100.513 30.2091C100.478 29.3021 100.04 28.5346 98.7456 28.5346C97.8883 28.5346 97.031 28.9358 96.4187 29.3195L95.9638 28.5521C96.6461 28.116 97.7658 27.5928 98.938 27.5928C100.758 27.5928 101.65 28.6742 101.65 30.3311V34.3951H100.705L100.618 33.4881H100.583C99.8478 34.0637 98.903 34.5521 97.9583 34.5521C96.7161 34.5869 95.6838 33.8893 95.6838 32.7032ZM100.53 32.6858V30.959C97.6784 31.1858 96.8211 31.7439 96.8211 32.616C96.8211 33.366 97.5034 33.6625 98.2732 33.6625C99.0255 33.68 99.7603 33.3137 100.53 32.6858Z" fill="url(#paint13_linear)"/>
<path d="M42.5146 43.3607L40.0127 39.0352H41.2899L42.5496 41.32C42.777 41.7212 42.987 42.1049 43.2844 42.6282H43.3369C43.5818 42.0875 43.7568 41.7212 43.9842 41.32L45.2089 39.0352H46.4336L43.9317 43.4131L46.6086 47.9828H45.3139L43.9667 45.5758C43.7218 45.1224 43.4769 44.6689 43.1794 44.1282H43.1269C42.8645 44.6689 42.6371 45.1224 42.3921 45.5758L41.045 47.9828H39.8203L42.5146 43.3607Z" fill="white"/>
<path d="M42.5146 43.3607L40.0127 39.0352H41.2899L42.5496 41.32C42.777 41.7212 42.987 42.1049 43.2844 42.6282H43.3369C43.5818 42.0875 43.7568 41.7212 43.9842 41.32L45.2089 39.0352H46.4336L43.9317 43.4131L46.6086 47.9828H45.3139L43.9667 45.5758C43.7218 45.1224 43.4769 44.6689 43.1794 44.1282H43.1269C42.8645 44.6689 42.6371 45.1224 42.3921 45.5758L41.045 47.9828H39.8203L42.5146 43.3607Z" fill="url(#paint14_linear)"/>
<path d="M51.7697 43.3607L49.2678 39.0352H50.545L51.8047 41.32C52.0321 41.7212 52.2421 42.1049 52.5395 42.6282H52.592C52.8369 42.0875 53.0119 41.7212 53.2394 41.32L54.4641 39.0352H55.6888L53.1869 43.4131L55.8637 47.9828H54.569L53.2219 45.5758C52.9769 45.1224 52.732 44.6689 52.4346 44.1282H52.3821C52.1196 44.6689 51.8922 45.1224 51.6472 45.5758L50.3001 47.9828H49.0754L51.7697 43.3607Z" fill="white"/>
<path d="M51.7697 43.3607L49.2678 39.0352H50.545L51.8047 41.32C52.0321 41.7212 52.2421 42.1049 52.5395 42.6282H52.592C52.8369 42.0875 53.0119 41.7212 53.2394 41.32L54.4641 39.0352H55.6888L53.1869 43.4131L55.8637 47.9828H54.569L53.2219 45.5758C52.9769 45.1224 52.732 44.6689 52.4346 44.1282H52.3821C52.1196 44.6689 51.8922 45.1224 51.6472 45.5758L50.3001 47.9828H49.0754L51.7697 43.3607Z" fill="url(#paint15_linear)"/>
<path d="M58.9078 47.0234H61.1472V39.9943H58.9078V39.0176H64.5239V39.9943H62.2844V47.0234H64.5239V48.0001H58.9078V47.0234Z" fill="white"/>
<path d="M58.9078 47.0234H61.1472V39.9943H58.9078V39.0176H64.5239V39.9943H62.2844V47.0234H64.5239V48.0001H58.9078V47.0234Z" fill="url(#paint16_linear)"/>
<defs>
<linearGradient id="paint0_linear" x1="43.5297" y1="11.8955" x2="43.5297" y2="20.8781" gradientUnits="userSpaceOnUse">
<stop stop-color="white"/>
<stop offset="1" stop-color="white" stop-opacity="0"/>
</linearGradient>
<linearGradient id="paint1_linear" x1="51.9625" y1="14.2153" x2="51.9625" y2="21.0351" gradientUnits="userSpaceOnUse">
<stop stop-color="white"/>
<stop offset="1" stop-color="white" stop-opacity="0"/>
</linearGradient>
<linearGradient id="paint2_linear" x1="61.7599" y1="14.0581" x2="61.7599" y2="21.0174" gradientUnits="userSpaceOnUse">
<stop stop-color="white"/>
<stop offset="1" stop-color="white" stop-opacity="0"/>
</linearGradient>
<linearGradient id="paint3_linear" x1="71.4261" y1="14.0581" x2="71.4261" y2="20.8604" gradientUnits="userSpaceOnUse">
<stop stop-color="white"/>
<stop offset="1" stop-color="white" stop-opacity="0"/>
</linearGradient>
<linearGradient id="paint4_linear" x1="80.2176" y1="14.2324" x2="80.2176" y2="20.8603" gradientUnits="userSpaceOnUse">
<stop stop-color="white"/>
<stop offset="1" stop-color="white" stop-opacity="0"/>
</linearGradient>
<linearGradient id="paint5_linear" x1="89.6569" y1="14.0581" x2="89.6569" y2="23.6511" gradientUnits="userSpaceOnUse">
<stop stop-color="white"/>
<stop offset="1" stop-color="white" stop-opacity="0"/>
</linearGradient>
<linearGradient id="paint6_linear" x1="98.7111" y1="14.0757" x2="98.7111" y2="21.035" gradientUnits="userSpaceOnUse">
<stop stop-color="white"/>
<stop offset="1" stop-color="white" stop-opacity="0"/>
</linearGradient>
<linearGradient id="paint7_linear" x1="43.2321" y1="27.7847" x2="43.2321" y2="34.4126" gradientUnits="userSpaceOnUse">
<stop stop-color="white"/>
<stop offset="1" stop-color="white" stop-opacity="0"/>
</linearGradient>
<linearGradient id="paint8_linear" x1="52.5048" y1="27.6279" x2="52.5048" y2="34.5872" gradientUnits="userSpaceOnUse">
<stop stop-color="white"/>
<stop offset="1" stop-color="white" stop-opacity="0"/>
</linearGradient>
<linearGradient id="paint9_linear" x1="61.7073" y1="27.7847" x2="61.7073" y2="34.43" gradientUnits="userSpaceOnUse">
<stop stop-color="white"/>
<stop offset="1" stop-color="white" stop-opacity="0"/>
</linearGradient>
<linearGradient id="paint10_linear" x1="70.9622" y1="27.7847" x2="70.9622" y2="34.43" gradientUnits="userSpaceOnUse">
<stop stop-color="white"/>
<stop offset="1" stop-color="white" stop-opacity="0"/>
</linearGradient>
<linearGradient id="paint11_linear" x1="79.5532" y1="24.6455" x2="79.5532" y2="34.4304" gradientUnits="userSpaceOnUse">
<stop stop-color="white"/>
<stop offset="1" stop-color="white" stop-opacity="0"/>
</linearGradient>
<linearGradient id="paint12_linear" x1="89.9363" y1="27.6279" x2="89.9363" y2="34.4302" gradientUnits="userSpaceOnUse">
<stop stop-color="white"/>
<stop offset="1" stop-color="white" stop-opacity="0"/>
</linearGradient>
<linearGradient id="paint13_linear" x1="98.6669" y1="27.5928" x2="98.6669" y2="34.5533" gradientUnits="userSpaceOnUse">
<stop stop-color="white"/>
<stop offset="1" stop-color="white" stop-opacity="0"/>
</linearGradient>
<linearGradient id="paint14_linear" x1="43.2144" y1="39.0352" x2="43.2144" y2="47.9828" gradientUnits="userSpaceOnUse">
<stop stop-color="white"/>
<stop offset="1" stop-color="white" stop-opacity="0"/>
</linearGradient>
<linearGradient id="paint15_linear" x1="52.4695" y1="39.0352" x2="52.4695" y2="47.9828" gradientUnits="userSpaceOnUse">
<stop stop-color="white"/>
<stop offset="1" stop-color="white" stop-opacity="0"/>
</linearGradient>
<linearGradient id="paint16_linear" x1="61.7158" y1="39.0176" x2="61.7158" y2="48.0001" gradientUnits="userSpaceOnUse">
<stop stop-color="white"/>
<stop offset="1" stop-color="white" stop-opacity="0"/>
</linearGradient>
</defs>
</svg>
