<svg width="92" height="48" viewBox="0 0 92 48" fill="none" xmlns="http://www.w3.org/2000/svg">
<path d="M10.7075 38.1331C4.8021 38.1331 0 33.331 0 27.4255C0 21.5201 4.8021 16.718 10.7075 16.718H29.1961C32.5166 16.718 35.2119 14.0175 35.2119 10.7023C35.2119 7.38178 32.5114 4.68651 29.1961 4.68651C25.8809 4.68651 23.1804 7.38704 23.1804 10.7075H18.4939C18.4939 4.8021 23.2959 0 29.2014 0C35.1068 0 39.9089 4.8021 39.9089 10.7075C39.9089 16.6077 35.1068 21.415 29.2014 21.415H10.7075C7.38703 21.415 4.69176 24.1156 4.69176 27.4308C4.69176 30.746 7.39229 33.4466 10.7075 33.4466C14.0228 33.4466 16.7233 30.746 16.7233 27.4308H21.4098C21.4098 33.331 16.6077 38.1331 10.7075 38.1331Z" fill="#00ACE9"/>
<path d="M25.8499 16.6865H28.6712V26.0963H33.7255V28.3082H25.8499V16.6865Z" fill="black"/>
<path d="M45.1523 24.5778H39.3362C39.5569 25.7967 40.3765 26.4062 41.7951 26.4062C42.2259 26.4062 42.6462 26.3431 43.056 26.2223C43.4658 26.1014 43.9071 25.9386 44.3695 25.7442V27.9718C43.4185 28.3659 42.3467 28.5655 41.1646 28.5655C40.2714 28.5655 39.4886 28.3816 38.8108 28.0191C38.1383 27.6513 37.6129 27.126 37.2451 26.4429C36.8721 25.7599 36.6882 24.9508 36.6882 24.0209C36.6882 22.4867 37.0665 21.2993 37.8283 20.4587C38.5902 19.6181 39.6725 19.1978 41.0753 19.1978C43.8283 19.1925 45.1891 20.9894 45.1523 24.5778ZM39.3152 22.9228H42.5726C42.4938 22.2976 42.3257 21.851 42.0788 21.5831C41.8266 21.3151 41.4588 21.1838 40.9702 21.1838C40.0455 21.1785 39.4938 21.7617 39.3152 22.9228Z" fill="black"/>
<path d="M49.3345 27.3834C48.5937 26.5953 48.2207 25.4184 48.2207 23.8633C48.2207 22.2398 48.5885 21.0524 49.3293 20.3116C50.0648 19.5708 51.1839 19.1978 52.6813 19.1978C54.1787 19.1978 55.3083 19.576 56.0596 20.3379C56.8161 21.0997 57.1944 22.2766 57.1944 23.8633C57.1944 25.3974 56.8056 26.5638 56.028 27.3624C55.2505 28.1662 54.1366 28.5655 52.6813 28.5655C51.1944 28.5655 50.0753 28.1715 49.3345 27.3834ZM54.1261 25.823C54.4519 25.3764 54.6147 24.7249 54.6147 23.8633C54.6147 22.9228 54.4571 22.2503 54.1366 21.851C53.8161 21.4517 53.3328 21.252 52.6813 21.252C52.0088 21.252 51.5202 21.4517 51.226 21.851C50.9317 22.2503 50.7794 22.9228 50.7794 23.8633C50.7794 24.7564 50.9317 25.4184 51.2417 25.8492C51.5517 26.2801 52.0298 26.4955 52.6813 26.4955C53.317 26.4902 53.8004 26.2695 54.1261 25.823Z" fill="black"/>
<path d="M25.8496 32.4956H33.8093V34.6707H28.671V37.1979H33.1316V39.394H28.671V41.9369H33.8093V44.1121H25.8496V32.4956Z" fill="black"/>
<path d="M39.9089 35.3699C40.8389 35.1598 41.669 35.0547 42.3993 35.0547C43.6445 35.0547 44.5744 35.2964 45.2049 35.785C45.8301 36.2736 46.1453 37.0722 46.1453 38.1913V44.1125H43.5499V38.7114C43.5499 37.7027 42.9825 37.1983 41.8424 37.1983C41.5849 37.1983 41.3275 37.2298 41.0595 37.2876C40.7916 37.3454 40.5814 37.4137 40.4343 37.4978V44.1177H37.8389V36.0529C38.2907 35.806 38.979 35.5801 39.9089 35.3699Z" fill="black"/>
<path d="M58.1665 40.3869H52.3504C52.571 41.6058 53.3907 42.2152 54.8092 42.2152C55.24 42.2152 55.6604 42.1522 56.0702 42.0314C56.48 41.9105 56.9213 41.7476 57.3836 41.5532V43.7809C56.4327 44.175 55.3609 44.3746 54.1787 44.3746C53.2856 44.3746 52.5027 44.1907 51.825 43.8282C51.1525 43.4604 50.6271 42.935 50.2593 42.252C49.8863 41.569 49.7024 40.7599 49.7024 39.83C49.7024 38.2958 50.0807 37.1084 50.8425 36.2678C51.6043 35.4272 52.6866 35.0068 54.0894 35.0068C56.8425 35.0016 58.2033 36.7984 58.1665 40.3869ZM52.3294 38.7319H55.5868C55.508 38.1067 55.3399 37.6601 55.0877 37.3921C54.8355 37.1242 54.4677 36.9928 53.9791 36.9928C53.0544 36.9876 52.5027 37.5708 52.3294 38.7319Z" fill="black"/>
<path d="M61.718 36.2261C61.8914 36.0737 62.1961 35.9056 62.6322 35.7217C63.0683 35.5378 63.5569 35.3749 64.0981 35.2436C64.6392 35.1122 65.1593 35.0439 65.6585 35.0439C66.6199 35.0439 67.2924 35.1911 67.6602 35.48V37.3767C67.1979 37.2716 66.5254 37.2191 65.6585 37.2191C65.1121 37.2191 64.6655 37.2506 64.3187 37.3084V44.1175H61.7233V36.2261H61.718Z" fill="black"/>
<path d="M78.0684 35.6744C78.7357 36.0842 79.0719 36.6726 79.0719 37.4239V44.2173C79.0719 45.4362 78.6831 46.3714 77.9055 47.0229C77.128 47.6744 76.0194 48.0001 74.5798 48.0001C73.8337 48.0001 73.1875 47.9476 72.6306 47.8425C72.0737 47.7374 71.6376 47.6008 71.3224 47.4222V45.142C71.6586 45.3048 72.1315 45.4625 72.7357 45.6148C73.3399 45.7672 73.9178 45.8407 74.48 45.8407C75.2365 45.8407 75.7672 45.6884 76.0719 45.3889C76.3819 45.0842 76.5343 44.6639 76.5343 44.1175V43.6131C75.9406 44.1227 75.1998 44.3801 74.3066 44.3801C73.0772 44.3224 72.121 43.9283 71.4485 43.2033C70.7759 42.4782 70.4397 41.4064 70.4397 39.9879C70.4397 38.1542 70.86 36.8723 71.7006 36.1472C72.5413 35.4222 73.7654 35.0597 75.3679 35.0597C76.4975 35.0544 77.4012 35.2646 78.0684 35.6744ZM73.5395 41.7374C73.8915 42.2103 74.3644 42.4414 74.9581 42.4414C75.5413 42.4414 76.0614 42.3101 76.5238 42.0421V38.0019C76.5238 37.4082 76.0614 37.114 75.1315 37.114C73.7129 37.114 73.0036 38.0176 73.0036 39.8302C73.0089 40.6288 73.1875 41.2646 73.5395 41.7374Z" fill="black"/>
<path d="M91.7548 35.3012L88.2872 44.2539C87.4413 46.4395 86.3118 47.5271 84.909 47.5271C84.3047 47.5271 83.7846 47.422 83.3433 47.2118V45.105C83.69 45.2311 84.0368 45.2941 84.3731 45.2941C84.7198 45.2941 85.014 45.1943 85.2505 44.9999C85.4869 44.8003 85.676 44.4798 85.8179 44.0227L82.282 35.2959H85.2452L87.1104 41.0805L88.9755 35.2959H91.7548V35.3012Z" fill="black"/>
</svg>
